Training accuracy;Training loss;Validation accuracy;Validation loss
0.17218;0.896598803;0.1649;0.896714683
0.22854;0.847036857;0.2258;0.84798006
0.52666;0.656586783;0.5378;0.653107345
0.70022;0.493477345;0.7196;0.482577678
0.80404;0.403467798;0.825;0.389174081
0.84644;0.338981064;0.8629;0.321508712
0.86512;0.295537172;0.8781;0.276335496
0.87572;0.265469679;0.8907;0.245783592
0.88304;0.244009096;0.8966;0.224334801
0.88826;0.228242207;0.8999;0.208819694
0.8917;0.216168616;0.9027;0.197108392
0.89478;0.206527408;0.9054;0.187856445
0.8977;0.198552494;0.9081;0.180261046
0.90024;0.191778287;0.9103;0.173848737
0.90274;0.185910899;0.9127;0.168328253
0.90484;0.180752814;0.9147;0.163506577
0.9062;0.176162558;0.9168;0.159246047
0.90766;0.172033837;0.9184;0.155443085
0.90922;0.168284472;0.9193;0.152017225
0.91086;0.164849976;0.9211;0.148904873
