Training accuracy;Training loss;Validation accuracy;Validation loss
0.81542;0.417569923;0.8389;0.397370191
0.85516;0.311665311;0.8756;0.287313358
0.86936;0.268848872;0.8878;0.244464136
0.8773;0.245457115;0.8948;0.221841632
0.88224;0.230638502;0.8992;0.207893317
0.88614;0.220269903;0.9019;0.198338335
0.88914;0.212493054;0.9029;0.191293363
0.89164;0.206361151;0.905;0.185816307
0.8937;0.201343007;0.9077;0.181386592
0.8957;0.197117279;0.9088;0.177693584
0.89714;0.193477375;0.9098;0.17454002
0.89884;0.190283691;0.9113;0.171794001
0.90028;0.187438012;0.9125;0.169363565
0.90148;0.184868999;0.9139;0.167182438
0.90292;0.182523476;0.9146;0.165201584
0.9038;0.180360933;0.9153;0.163383903
0.90462;0.178349888;0.9162;0.161700749
0.90558;0.176465408;0.9164;0.160129561
0.9065;0.174687385;0.9172;0.158652225
0.90738;0.17299933;0.9181;0.157253927
