Training accuracy;Training loss;Validation accuracy;Validation loss
0.62674;0.670595657;0.6428;0.664867508
0.80566;0.427010818;0.8283;0.40984682
0.85218;0.332312597;0.8704;0.311135372
0.8694;0.282799613;0.8848;0.260716919
0.87802;0.253154033;0.8926;0.23116817
0.88332;0.233810476;0.8987;0.21228713
0.8877;0.22013232;0.902;0.199181991
0.89152;0.209778938;0.9051;0.189416093
0.89494;0.201527555;0.9072;0.181737113
0.8976;0.194695903;0.9093;0.175455231
0.89996;0.188874184;0.9119;0.170159245
0.90206;0.183799905;0.9138;0.165586964
0.90376;0.179296193;0.9152;0.161562523
0.90546;0.175239166;0.917;0.15796351
0.90696;0.171539438;0.9183;0.154702279
0.90892;0.168130965;0.9192;0.151714604
0.91036;0.164964002;0.9198;0.148952471
0.9116;0.162000464;0.9208;0.146379333
0.91282;0.159210777;0.9216;0.14396691
0.9142;0.156571666;0.9231;0.141692967
